<?xml version="1.0" encoding="UTF-8"?>
<!DOCTYPE svg PUBLIC "-//W3C//DTD SVG 1.1//EN" "http://www.w3.org/Graphics/SVG/1.1/DTD/svg11.dtd">
<!-- Creator: CorelDRAW X7 -->
<svg xmlns="http://www.w3.org/2000/svg" xml:space="preserve" width="0.441378in" height="0.441378in" version="1.1" style="shape-rendering:geometricPrecision; text-rendering:geometricPrecision; image-rendering:optimizeQuality; fill-rule:evenodd; clip-rule:evenodd"
viewBox="0 0 34 34"
 xmlns:xlink="http://www.w3.org/1999/xlink">
 <defs>
  <style type="text/css">
   <![CDATA[
    .fil0 {fill:#2081C7}
    .fil1 {fill:white}
   ]]>
  </style>
 </defs>
 <g id="Layer_x0020_1">
  <metadata id="CorelCorpID_0Corel-Layer"/>
  <g id="_1739434595856">
   <circle class="fil0" cx="17" cy="17" r="17"/>
   <path class="fil1" d="M25 13l0 -2 -5 0 0 2c-3,1 -5,4 -5,7 0,4 3,7 7,7 4,0 8,-3 8,-7 0,-3 -2,-6 -5,-7zm-3 8c0,1 -1,1 -2,1 0,0 -1,0 -1,-1 0,-1 1,-1 1,-1 1,0 2,0 2,1zm2 1c-1,0 -1,1 -1,1 0,1 0,1 1,1 0,0 1,0 1,-1 0,0 -1,-1 -1,-1zm0 -1c0,0 0,0 0,-1 0,0 0,0 0,0 0,0 -1,0 -1,0 0,1 1,1 1,1zm2 0c0,0 -1,0 -1,1 0,0 1,0 1,0 0,0 1,0 1,0 0,-1 -1,-1 -1,-1zm0 -2c0,0 0,0 0,0 0,1 0,1 0,1 1,0 1,0 1,-1 0,0 0,0 -1,0zm-5 0c3,0 6,-3 7,0 0,0 0,1 0,1 0,3 -2,6 -6,6 -3,0 -6,-3 -6,-6 0,-1 0,-1 0,-2 1,-1 2,1 5,1zm4 -9l0 0c0,0 1,0 1,-1 0,0 -1,0 -1,0l-5 0c-1,0 -1,0 -1,0 0,1 0,1 1,1l0 0 0 0 5 0z"/>
   <path class="fil1" d="M14 7l-8 0c0,0 0,0 0,1l0 0c0,0 0,1 0,1l8 0 0 0c1,0 1,-1 1,-1l0 0c0,-1 0,-1 -1,-1zm-4 10c-1,0 -1,1 -1,1 0,1 0,1 1,1 0,0 1,0 1,-1 0,0 -1,-1 -1,-1zm1 -1c1,0 1,0 1,0 0,0 0,-1 -1,-1 0,0 0,1 0,1 0,0 0,0 0,0zm0 4c0,0 0,1 0,1 0,1 0,1 0,1 1,0 1,0 1,-1 0,0 0,-1 -1,-1zm-1 2c-1,0 -1,1 -1,1 0,0 0,0 1,0 0,0 0,0 0,0 0,0 0,-1 0,-1zm2 -10c0,0 1,1 1,1l0 10c0,2 -1,3 -3,3 -1,0 -2,-1 -2,-3l0 -10c0,0 0,0 1,0 1,0 2,-1 3,-1zm-6 -3l0 14c0,3 2,4 4,4 3,0 4,-1 4,-4l0 -14 -8 0z"/>
  </g>
 </g>
</svg>
